Chapter28 Day 28 | Notes for STAT 5413 - Spatial Statistics
…
where the integral over \(\boldsymbol{\theta}\) is performed using MCMC sampling.

Using the bayesplot package, we can explre the posterior predictive checks (ppcs) using a variety of functions

## extract the posterior predictive samples
y_rep <- rstan::extract(fit, pars = "y_rep")$y_rep

## only plot for 25 randomly selected samples
plot_idx <- sample(1:n, 25)

ppc_data(y, y_rep)

## # A tibble: 2,001,000 × 6
##     y_id rep_id rep_label             is_y  is_y_label     value
##    <int>  <int> <fct>                 <lgl> <fct>          <dbl>
##  1     1      1 italic(y)[rep] ( 1 )  FALSE italic(y)[rep]  3.37
##  2     1      2 italic(y)[rep] ( 2 )  FALSE italic(y)[rep]  3.36
##  3     1      3 italic(y)[rep] ( 3 )  FALSE italic(y)[rep]  3.69
##  4     1      4 italic(y)[rep] ( 4 )  FALSE italic(y)[rep]  3.67
##  5     1      5 italic(y)[rep] ( 5 )  FALSE italic(y)[rep]  3.46
##  6     1      6 italic(y)[rep] ( 6 )  FALSE italic(y)[rep]  3.71
##  7     1      7 italic(y)[rep] ( 7 )  FALSE italic(y)[rep]  3.53
##  8     1      8 italic(y)[rep] ( 8 )  FALSE italic(y)[rep]  2.93
##  9     1      9 italic(y)[rep] ( 9 )  FALSE italic(y)[rep]  3.40
## 10     1     10 italic(y)[rep] ( 10 ) FALSE italic(y)[rep]  3.62
## # … with 2,000,990 more rows
…
